Análisis del Precio del Oro
…
Código

s1 <- d |>
  select(date, gold_ret, dollar_ret) |>
  drop_na()
print(s1)

# A tibble: 148 × 3
   date       gold_ret dollar_ret
   <date>        <dbl>      <dbl>
 1 2006-02-01  0.00898    0.00274
 2 2006-03-01  0.00433    0.00223
 3 2006-05-01  0.0995    -0.0222 
 4 2006-06-01 -0.113      0.0123 
 5 2006-08-01 -0.00576   -0.00780
 6 2006-09-01 -0.0495     0.00274
 7 2006-11-01  0.0694    -0.00791
 8 2006-12-01  0.00379   -0.00779
 9 2007-02-01  0.0559    -0.00384
10 2007-03-01 -0.0175    -0.00494
# ℹ 138 more rows
…
